0,13.36988711,0.28611898,37,"[('trimming', {'minimum': 0, 'maximum': 30}), ('spherical k-means', {'k': 37, 'max_iterations': 10})]"
1,26.84230542,0.28611898,37,"[('trimming', {'minimum': 0, 'maximum': 30}), ('spherical k-means', {'k': 37, 'max_iterations': 20})]"
1,68.89019704,0.295561851,37,"[('trimming', {'minimum': 0, 'maximum': 30}), ('spherical k-means', {'k': 37, 'max_iterations': 50})]"
1,27.62231421,0.305004721,37,"[('trimming', {'minimum': 0, 'maximum': 30}), ('spherical k-means', {'max_iterations': 20, 'k': 37})]"
2,70.64554691,0.288007554,37,"[('trimming', {'minimum': 0, 'maximum': 30}), ('spherical k-means', {'k': 37, 'max_iterations': 50})]"
3,142.1024129,0.300283286,37,"[('trimming', {'maximum': 30, 'minimum': 0}), ('spherical k-means', {'k': 37, 'max_iterations': 100})]"
4,283.5025101,0.306893296,37,"[('trimming', {'maximum': 30, 'minimum': 0}), ('spherical k-means', {'k': 37, 'max_iterations': 200})]"
5,1407.014303,0.30217186,37,"[('trimming', {'minimum': 0, 'maximum': 30}), ('spherical k-means', {'max_iterations': 1000, 'k': 37})]"
6,26.04966211,0.312559018,74,"[('trimming', {'minimum': 0, 'maximum': 30}), ('spherical k-means', {'max_iterations': 10, 'k': 74})]"
7,60.02812696,0.317280453,74,"[('trimming', {'maximum': 30, 'minimum': 0}), ('spherical k-means', {'k': 74, 'max_iterations': 20})]"
8,139.7579849,0.313503305,74,"[('trimming', {'maximum': 30, 'minimum': 0}), ('spherical k-means', {'k': 74, 'max_iterations': 50})]"
9,273.2479177,0.307837583,74,"[('trimming', {'maximum': 30, 'minimum': 0}), ('spherical k-means', {'max_iterations': 100, 'k': 74})]"
10,559.6454482,0.310670444,74,"[('trimming', {'maximum': 30, 'minimum': 0}), ('spherical k-means', {'max_iterations': 200, 'k': 74})]"
11,2768.138869,0.312559018,74,"[('trimming', {'minimum': 0, 'maximum': 30}), ('spherical k-means', {'k': 74, 'max_iterations': 1000})]"
12,35.9146235,0.328611898,100,"[('trimming', {'maximum': 30, 'minimum': 0}), ('spherical k-means', {'max_iterations': 10, 'k': 100})]"
13,75.19923615,0.319169027,100,"[('trimming', {'minimum': 0, 'maximum': 30}), ('spherical k-means', {'max_iterations': 20, 'k': 100})]"
14,185.512862,0.327667611,100,"[('trimming', {'maximum': 30, 'minimum': 0}), ('spherical k-means', {'max_iterations': 50, 'k': 100})]"
16,737.3173132,0.320113314,100,"[('trimming', {'minimum': 0, 'maximum': 30}), ('spherical k-means', {'max_iterations': 200, 'k': 100})]"
17,3766.620212,0.321057602,100,"[('trimming', {'minimum': 0, 'maximum': 30}), ('spherical k-means', {'max_iterations': 1000, 'k': 100})]"
15,377.49833250045776,0.3182247403210576,100,"[('trimming', {'minimum': 0, 'maximum': 30}), ('spherical k-means', {'k': 100, 'max_iterations': 100})]"
17,69.71217632293701,0.20868744098205855,1,"[('trimming', {'maximum': 30, 'minimum': 0}), ('match average', {'best': True, 'threshold': 0.1})]"
18,34.711325883865356,0.20868744098205855,1,"[('trimming', {'minimum': 0, 'maximum': 30}), ('match average', {'best': False, 'threshold': 0.1})]"
19,40.23035907745361,0.2521246458923513,4,"[('trimming', {'minimum': 0, 'maximum': 30}), ('match average', {'best': True, 'threshold': 0.2})]"
20,35.137943267822266,0.21246458923512748,4,"[('trimming', {'maximum': 30, 'minimum': 0}), ('match average', {'best': False, 'threshold': 0.2})]"
21,28.561551809310913,0.2577903682719547,10,"[('trimming', {'minimum': 0, 'maximum': 30}), ('match average', {'threshold': 0.3, 'best': True})]"
22,29.325127363204956,0.24079320113314448,13,"[('trimming', {'minimum': 0, 'maximum': 30}), ('match average', {'best': False, 'threshold': 0.3})]"
23,23.02247643470764,0.2766761095372993,33,"[('trimming', {'maximum': 30, 'minimum': 0}), ('match average', {'best': True, 'threshold': 0.4})]"
24,15.655263662338257,0.2898961284230406,36,"[('trimming', {'maximum': 30, 'minimum': 0}), ('match average', {'best': False, 'threshold': 0.4})]"
25,20.753315687179565,0.3333333333333333,90,"[('trimming', {'minimum': 0, 'maximum': 30}), ('match average', {'best': True, 'threshold': 0.5})]"
26,7.097181081771851,0.3314447592067989,94,"[('trimming', {'maximum': 30, 'minimum': 0}), ('match average', {'best': False, 'threshold': 0.5})]"
27,21.380055904388428,0.4183191690273843,220,"[('trimming', {'minimum': 0, 'maximum': 30}), ('match average', {'best': True, 'threshold': 0.6})]"
28,7.063471078872681,0.41359773371104813,227,"[('trimming', {'minimum': 0, 'maximum': 30}), ('match average', {'threshold': 0.6, 'best': False})]"
29,23.824223518371582,0.5816808309726157,461,"[('trimming', {'maximum': 30, 'minimum': 0}), ('match average', {'threshold': 0.7, 'best': True})]"
30,13.421744585037231,0.5892351274787535,471,"[('trimming', {'maximum': 30, 'minimum': 0}), ('match average', {'best': False, 'threshold': 0.7})]"
31,28.000452280044556,0.7629839471199245,739,"[('trimming', {'maximum': 30, 'minimum': 0}), ('match average', {'threshold': 0.8, 'best': True})]"
x,33.20565390586853,0.927289896128423,964,"[('trimming', {'maximum': 30, 'minimum': 0}), ('match average', {'threshold': 1, 'best': False})]"
